<?xml version="1.0" standalone="no"?>
<!DOCTYPE svg PUBLIC "-//W3C//DTD SVG 20010904//EN"
 "http://www.w3.org/TR/2001/REC-SVG-20010904/DTD/svg10.dtd">
<svg version="1.0" xmlns="http://www.w3.org/2000/svg"
 width="220.000000pt" height="229.000000pt" viewBox="0 0 220.000000 229.000000"
 preserveAspectRatio="xMidYMid meet">

<g transform="translate(0.000000,229.000000) scale(0.100000,-0.100000)"
fill="#000000" stroke="none">
<path d="M652 2045 c-260 -134 -480 -249 -488 -256 -11 -9 -14 -51 -14 -218
l0 -207 60 -59 c33 -33 60 -63 60 -67 0 -4 -58 -37 -129 -73 -71 -35 -133 -69
-136 -76 -9 -13 78 -102 667 -681 l417 -410 471 263 c258 144 470 267 470 273
0 6 -21 32 -47 59 -27 27 -43 51 -38 54 6 2 64 34 130 71 l120 67 3 220 2 220
-532 532 c-293 293 -535 533 -538 533 -3 -1 -218 -110 -478 -245z m1275 -649
c-18 -11 -56 -35 -85 -53 -61 -38 -63 -26 23 -128 28 -33 56 -67 63 -76 11
-14 -28 -39 -325 -205 -186 -104 -343 -189 -349 -189 -13 0 -1044 1013 -1044
1025 0 4 206 113 458 243 l457 236 417 -417 417 -416 -32 -20z m-697 -736 l0
-45 -449 449 c-332 332 -453 447 -465 443 -13 -5 -14 -11 -7 -24 5 -10 214
-220 465 -466 l456 -449 0 -56 0 -57 -314 314 c-231 231 -318 312 -330 308
-13 -5 -15 -11 -7 -25 5 -10 154 -161 330 -335 283 -278 321 -319 321 -346 0
-17 -1 -31 -3 -31 -1 0 -234 232 -517 515 l-515 515 -3 53 -3 52 100 -100 c80
-79 103 -97 113 -87 10 10 -11 36 -100 125 l-112 112 0 103 0 104 520 -514
520 -513 0 -45z m736 693 c-2 -10 -7 -54 -11 -98 l-7 -79 -53 59 c-32 36 -50
64 -45 69 13 13 103 66 113 66 5 0 6 -8 3 -17z m108 -52 l68 -68 -77 -42 c-42
-24 -78 -41 -80 -39 -3 3 16 218 19 218 1 0 32 -31 70 -69z m-1556 -311 l214
-217 -56 -32 c-31 -17 -56 -36 -56 -41 0 -23 30 -19 79 9 29 17 55 31 59 31 5
0 23 -15 41 -34 l33 -34 -56 -32 c-31 -17 -56 -36 -56 -41 0 -22 31 -18 79 10
29 17 55 31 59 31 9 0 82 -72 82 -81 0 -4 -23 -20 -50 -35 -49 -27 -66 -54
-34 -54 9 0 39 14 67 31 l50 30 33 -32 c19 -18 34 -36 34 -40 0 -4 -22 -20
-50 -36 -47 -26 -59 -41 -43 -56 3 -4 32 8 64 25 l59 32 35 -34 c39 -38 36
-47 -25 -75 -38 -17 -51 -37 -32 -49 5 -3 35 11 66 31 l57 35 33 -31 c17 -17
35 -31 39 -31 4 0 152 79 328 175 176 96 324 175 328 175 4 0 24 -18 45 -39
36 -37 37 -40 20 -51 -11 -6 -210 -118 -444 -249 l-425 -238 -515 511 c-283
281 -516 516 -517 521 -3 9 224 135 237 133 3 -1 101 -99 218 -218z m1642 13
l-1 -198 -351 -190 c-193 -104 -396 -214 -450 -243 l-99 -54 3 64 3 63 140 77
c169 92 184 102 169 117 -7 8 -51 -11 -157 -69 -80 -44 -149 -80 -152 -80 -3
0 -5 18 -5 39 l0 40 298 164 c173 96 298 171 300 181 2 9 -2 16 -8 16 -7 0
-134 -67 -284 -149 -149 -83 -279 -153 -289 -157 -16 -6 -18 -2 -15 36 l3 42
440 248 c242 136 443 248 448 249 4 1 7 -88 7 -196z"/>
<path d="M1141 1989 c-11 -13 -31 -38 -44 -56 -12 -18 -25 -33 -28 -33 -4 0
-49 18 -100 39 -52 22 -97 36 -102 32 -4 -4 4 -63 18 -130 14 -68 25 -127 25
-132 0 -4 -37 6 -82 23 -139 52 -131 55 -167 -53 -17 -51 -29 -95 -26 -97 14
-14 34 15 55 82 13 42 26 76 29 76 3 0 53 -18 111 -40 57 -22 108 -36 112 -32
5 5 -3 64 -17 132 -14 68 -23 125 -21 127 2 3 41 -12 87 -31 45 -20 85 -36 89
-36 3 0 28 30 54 66 33 44 45 69 38 76 -6 6 -17 2 -31 -13z"/>
<path d="M1120 1584 c-162 -92 -301 -172 -309 -180 -13 -11 -13 -14 0 -19 19
-7 619 334 619 352 0 7 -4 13 -8 13 -4 0 -141 -75 -302 -166z"/>
<path d="M1212 1481 c-160 -92 -297 -172 -304 -179 -9 -9 -8 -13 3 -17 19 -7
619 334 619 352 0 7 -6 13 -12 12 -7 0 -145 -76 -306 -168z"/>
<path d="M1326 1366 c-271 -155 -333 -196 -295 -196 14 0 576 316 599 336 9 9
11 17 5 22 -6 5 -134 -62 -309 -162z"/>
<path d="M1423 1267 c-266 -151 -334 -197 -292 -197 12 0 543 299 592 332 24
17 29 39 9 37 -4 0 -143 -78 -309 -172z"/>
<path d="M1413 1102 c-167 -93 -221 -132 -183 -132 22 0 400 215 400 227 0 7
-6 13 -12 13 -7 -1 -99 -49 -205 -108z"/>
</g>
</svg>
